{"content":[{"id":149428,"applicant":{"fullName":"Алексей Карчевский","userName":"master","email":"a.karchevski@pflb.ru","location":"142784, г.Москва, Киевское шоссе, 22-й км,\nБП ComCity, домовл.6, стр.1","phone":"8 (000) 123-45-67","mobilePhone":"8 (000) 123-45-67","id":106},"header":"Требуется дополнительный вывоз вторсырья","text":"Some text 2","createDate":1574853739996,"lastEditDate":1574853740008,"ticketState":"Новый","ticketStateId":-1,"serviceId":2812,"syncMask":"PORTAL_ONLY","files":[{"id":4731,"name":"C:\\Users\\student\\Desktop\\Ogdanets\\Project\\UC01_task_create\\File1.txt"}],"location":"default location","address":"default location","categories":["Экология","Вторсырье","Заказ дополнительного вывоза вторсырья"],"category1":"Экология","category2":"Вторсырье","category3":"Заказ дополнительного вывоза вторсырья","hasAttachments":true,"openCommunications":0,"totalCommunications":0,"actions":[]},{"id":149427,"applicant":{"fullName":"Алексей Карчевский","userName":"master","email":"a.karchevski@pflb.ru","location":"142784, г.Москва, Киевское шоссе, 22-й км,\nБП ComCity, домовл.6, стр.1","phone":"8 (000) 123-45-67","mobilePhone":"8 (000) 123-45-67","id":106},"header":"Конденстор поврежден [указать чем/кем]","text":"Some text 4","createDate":1574853628394,"lastEditDate":1574853628399,"ticketState":"Новый","ticketStateId":-1,"serviceId":2956,"syncMask":"PORTAL_ONLY","files":[{"id":4730,"name":"C:\\Users\\student\\Desktop\\Ogdanets\\Project\\UC01_task_create\\File1.txt"}],"location":"default location","address":"default location","categories":["Технологическое оборудование","Холодильное оборудование","Центральная холодильная машина, конденсатор"],"category1":"Технологическое оборудование","category2":"Холодильное оборудование","category3":"Центральная холодильная машина, конденсатор","hasAttachments":true,"openCommunications":0,"totalCommunications":0,"actions":[]},{"id":149426,"applicant":{"fullName":"Алексей Карчевский","userName":"master","email":"a.karchevski@pflb.ru","location":"142784, г.Москва, Киевское шоссе, 22-й км,\nБП ComCity, домовл.6, стр.1","phone":"8 (000) 123-45-67","mobilePhone":"8 (000) 123-45-67","id":106},"director":{"fullName":"Васильев Павел1","userName":"director_1","email":"director@mail.com","location":"location","address":"152 Скотопрогонная ул. 13","phone":"+79778334486","mobilePhone":"8 (000) 123-45-67","workPhone":"+79778334486","organization":"organization","id":101122},"header":"В холодильнике не горит свет","text":"Some text 1","createDate":1574853617433,"lastEditDate":1574853617439,"ticketState":"Новый","ticketStateId":-1,"serviceId":2976,"syncMask":"PORTAL_ONLY","files":[{"id":4729,"name":"C:\\Users\\student\\Desktop\\Ogdanets\\Project\\UC01_task_create\\File1.txt"}],"location":"152 Скотопрогонная ул. 13","address":"152 Скотопрогонная ул. 13","categories":["Технологическое оборудование","Холодильное оборудование","Холодильная пристенная горка"],"category1":"Технологическое оборудование","category2":"Холодильное оборудование","category3":"Холодильная пристенная горка","hasAttachments":true,"openCommunications":0,"totalCommunications":0,"actions":[]},{"id":149425,"applicant":{"fullName":"Алексей Карчевский","userName":"master","email":"a.karchevski@pflb.ru","location":"142784, г.Москва, Киевское шоссе, 22-й км,\nБП ComCity, домовл.6, стр.1","phone":"8 (000) 123-45-67","mobilePhone":"8 (000) 123-45-67","id":106},"header":"Физическое нарушение корпуса прибора","text":"Some text 5","createDate":1574853604558,"lastEditDate":1574853604562,"ticketState":"Новый","ticketStateId":-1,"serviceId":2823,"syncMask":"PORTAL_ONLY","files":[{"id":4728,"name":"C:\\Users\\student\\Desktop\\Ogdanets\\Project\\UC01_task_create\\File1.txt"}],"location":"default location","address":"default location","categories":["Инженерия","Измерительные приборы","Электросчетчик"],"category1":"Инженерия","category2":"Измерительные приборы","category3":"Электросчетчик","hasAttachments":true,"openCommunications":0,"totalCommunications":0,"actions":[]},{"id":149424,"applicant":{"fullName":"Алексей Карчевский","userName":"master","email":"a.karchevski@pflb.ru","location":"142784, г.Москва, Киевское шоссе, 22-й км,\nБП ComCity, домовл.6, стр.1","phone":"8 (000) 123-45-67","mobilePhone":"8 (000) 123-45-67","id":106},"header":"Требуется дополнительный вывоз вторсырья","text":"Some text 3","createDate":1574853386293,"lastEditDate":1574853386298,"ticketState":"Новый","ticketStateId":-1,"serviceId":2812,"syncMask":"PORTAL_ONLY","files":[{"id":4727,"name":"C:\\Users\\student\\Desktop\\Ogdanets\\Project\\UC01_task_create\\File1.txt"}],"location":"256 Бинарная ул. 16","address":"256 Бинарная ул. 16","categories":["Экология","Вторсырье","Заказ дополнительного вывоза вторсырья"],"category1":"Экология","category2":"Вторсырье","category3":"Заказ дополнительного вывоза вторсырья","hasAttachments":true,"openCommunications":0,"totalCommunications":0,"actions":[]},{"id":149423,"applicant":{"fullName":"Алексей Карчевский","userName":"master","email":"a.karchevski@pflb.ru","location":"142784, г.Москва, Киевское шоссе, 22-й км,\nБП ComCity, домовл.6, стр.1","phone":"8 (000) 123-45-67","mobilePhone":"8 (000) 123-45-67","id":106},"header":"Из трубки выходит ГАЗ","text":"Some text 5","createDate":1574853373934,"lastEditDate":1574853373939,"ticketState":"Новый","ticketStateId":-1,"serviceId":2955,"syncMask":"PORTAL_ONLY","files":[{"id":4726,"name":"C:\\Users\\student\\Desktop\\Ogdanets\\Project\\UC01_task_create\\File1.txt"}],"location":"256 Бинарная ул. 16","address":"256 Бинарная ул. 16","categories":["Технологическое оборудование","Холодильное оборудование","Центральная холодильная машина, конденсатор"],"category1":"Технологическое оборудование","category2":"Холодильное оборудование","category3":"Центральная холодильная машина, конденсатор","hasAttachments":true,"openCommunications":0,"totalCommunications":0,"actions":[]},{"id":149422,"applicant":{"fullName":"Алексей Карчевский","userName":"master","email":"a.karchevski@pflb.ru","location":"142784, г.Москва, Киевское шоссе, 22-й км,\nБП ComCity, домовл.6, стр.1","phone":"8 (000) 123-45-67","mobilePhone":"8 (000) 123-45-67","id":106},"header":"Лифт работает с открытой дверцей","text":"Some text 5","createDate":1574853363298,"lastEditDate":1574853363303,"ticketState":"Новый","ticketStateId":-1,"serviceId":2915,"syncMask":"PORTAL_ONLY","files":[{"id":4725,"name":"C:\\Users\\student\\Desktop\\Ogdanets\\Project\\UC01_task_create\\File1.txt"}],"location":"256 Бинарная ул. 16","address":"256 Бинарная ул. 16","categories":["Технологическое оборудование","Подъемные и передвижные механизмы","Эскалатор, лифт, подъемник"],"category1":"Технологическое оборудование","category2":"Подъемные и передвижные механизмы","category3":"Эскалатор, лифт, подъемник","hasAttachments":true,"openCommunications":0,"totalCommunications":0,"actions":[]},{"id":149421,"applicant":{"fullName":"Алексей Карчевский","userName":"master","email":"a.karchevski@pflb.ru","location":"142784, г.Москва, Киевское шоссе, 22-й км,\nБП ComCity, домовл.6, стр.1","phone":"8 (000) 123-45-67","mobilePhone":"8 (000) 123-45-67","id":106},"header":"Кондиционер издаёт нехарактерные звуки","text":"Some text 5","createDate":1574853352372,"lastEditDate":1574853352376,"ticketState":"Новый","ticketStateId":-1,"serviceId":2934,"syncMask":"PORTAL_ONLY","files":[{"id":4724,"name":"C:\\Users\\student\\Desktop\\Ogdanets\\Project\\UC01_task_create\\File1.txt"}],"location":"Барклая 24","address":"Барклая 24","categories":["Технологическое оборудование","Климатическое оборудование","Кондиционер"],"category1":"Технологическое оборудование","category2":"Климатическое оборудование","category3":"Кондиционер","hasAttachments":true,"openCommunications":0,"totalCommunications":0,"actions":[]},{"id":149420,"applicant":{"fullName":"Алексей Карчевский","userName":"master","email":"a.karchevski@pflb.ru","location":"142784, г.Москва, Киевское шоссе, 22-й км,\nБП ComCity, домовл.6, стр.1","phone":"8 (000) 123-45-67","mobilePhone":"8 (000) 123-45-67","id":106},"header":"Физическое нарушение корпуса прибора","text":"Some text 5","createDate":1574853061196,"lastEditDate":1574853061201,"ticketState":"Новый","ticketStateId":-1,"serviceId":2823,"syncMask":"PORTAL_ONLY","files":[{"id":4723,"name":"C:\\Users\\student\\Desktop\\Ogdanets\\Project\\UC01_task_create\\File1.txt"}],"location":"Изумрудная 14","address":"Изумрудная 14","categories":["Инженерия","Измерительные приборы","Электросчетчик"],"category1":"Инженерия","category2":"Измерительные приборы","category3":"Электросчетчик","hasAttachments":true,"openCommunications":0,"totalCommunications":0,"actions":[]},{"id":149419,"applicant":{"fullName":"Алексей Карчевский","userName":"master","email":"a.karchevski@pflb.ru","location":"142784, г.Москва, Киевское шоссе, 22-й км,\nБП ComCity, домовл.6, стр.1","phone":"8 (000) 123-45-67","mobilePhone":"8 (000) 123-45-67","id":106},"director":{"fullName":"Васильев Павел1","userName":"director_1","email":"director@mail.com","location":"location","address":"152 Скотопрогонная ул. 13","phone":"+79778334486","mobilePhone":"8 (000) 123-45-67","workPhone":"+79778334486","organization":"organization","id":101122},"header":"Конденстор поврежден [указать чем/кем]","text":"testdescriptiontest","createDate":1574852994239,"lastEditDate":1574852994243,"ticketState":"Новый","ticketStateId":-1,"serviceId":2956,"syncMask":"PORTAL_ONLY","files":[{"id":4722,"name":"C:\\Users\\student\\Desktop\\����� ����� (2)\\Andreev123\\pc\\togit\\XDESK\\UC01_task_create\\dist_ru (2)(1).zip"}],"location":"152 Скотопрогонная ул. 13","address":"152 Скотопрогонная ул. 13","categories":["Технологическое оборудование","Холодильное оборудование","Центральная холодильная машина, конденсатор"],"category1":"Технологическое оборудование","category2":"Холодильное оборудование","category3":"Центральная холодильная машина, конденсатор","hasAttachments":true,"openCommunications":0,"totalCommunications":0,"actions":[]}],"last":false,"totalElements":247,"totalPages":25,"size":10,"number":0,"sort":[{"direction":"DESC","property":"id","ignoreCase":false,"nullHandling":"NATIVE","ascending":false,"descending":true}],"numberOfElements":10,"first":true}