{"content":[{"id":149444,"applicant":{"fullName":"Алексей Карчевский","userName":"master","email":"a.karchevski@pflb.ru","location":"142784, г.Москва, Киевское шоссе, 22-й км,\nБП ComCity, домовл.6, стр.1","phone":"8 (000) 123-45-67","mobilePhone":"8 (000) 123-45-67","id":106},"header":"Не закрываются/плохо закрываются Дверки","text":"Some text 5","createDate":1574855150917,"lastEditDate":1574855150922,"ticketState":"Новый","ticketStateId":-1,"serviceId":2978,"syncMask":"PORTAL_ONLY","files":[{"id":4747,"name":"C:\\Users\\student\\Desktop\\Ogdanets\\Project\\UC01_task_create\\File1.txt"}],"location":"Изумрудная 14","address":"Изумрудная 14","categories":["Технологическое оборудование","Холодильное оборудование","Холодильная пристенная горка"],"category1":"Технологическое оборудование","category2":"Холодильное оборудование","category3":"Холодильная пристенная горка","hasAttachments":true,"openCommunications":0,"totalCommunications":0,"actions":[]},{"id":149443,"applicant":{"fullName":"Алексей Карчевский","userName":"master","email":"a.karchevski@pflb.ru","location":"142784, г.Москва, Киевское шоссе, 22-й км,\nБП ComCity, домовл.6, стр.1","phone":"8 (000) 123-45-67","mobilePhone":"8 (000) 123-45-67","id":106},"header":"Отсутствие пломб","text":"Some text 4","createDate":1574855139566,"lastEditDate":1574855139571,"ticketState":"Новый","ticketStateId":-1,"serviceId":2824,"syncMask":"PORTAL_ONLY","files":[{"id":4746,"name":"C:\\Users\\student\\Desktop\\Ogdanets\\Project\\UC01_task_create\\File1.txt"}],"location":"default location","address":"default location","categories":["Инженерия","Измерительные приборы","Счетчик тепла"],"category1":"Инженерия","category2":"Измерительные приборы","category3":"Счетчик тепла","hasAttachments":true,"openCommunications":0,"totalCommunications":0,"actions":[]},{"id":149442,"applicant":{"fullName":"Алексей Карчевский","userName":"master","email":"a.karchevski@pflb.ru","location":"142784, г.Москва, Киевское шоссе, 22-й км,\nБП ComCity, домовл.6, стр.1","phone":"8 (000) 123-45-67","mobilePhone":"8 (000) 123-45-67","id":106},"header":"Не работает холодильная камера (указать, какую температуру показывает)","text":"Some text 5","createDate":1574855128645,"lastEditDate":1574855128651,"ticketState":"Новый","ticketStateId":-1,"serviceId":2958,"syncMask":"PORTAL_ONLY","files":[{"id":4745,"name":"C:\\Users\\student\\Desktop\\Ogdanets\\Project\\UC01_task_create\\File1.txt"}],"location":"default location","address":"default location","categories":["Технологическое оборудование","Холодильное оборудование","Холодильная камера"],"category1":"Технологическое оборудование","category2":"Холодильное оборудование","category3":"Холодильная камера","hasAttachments":true,"openCommunications":0,"totalCommunications":0,"actions":[]},{"id":149441,"applicant":{"fullName":"Алексей Карчевский","userName":"master","email":"a.karchevski@pflb.ru","location":"142784, г.Москва, Киевское шоссе, 22-й км,\nБП ComCity, домовл.6, стр.1","phone":"8 (000) 123-45-67","mobilePhone":"8 (000) 123-45-67","id":106},"header":"Не закрываются/плохо закрываются Дверки","text":"Some text 4","createDate":1574855118382,"lastEditDate":1574855118386,"ticketState":"Новый","ticketStateId":-1,"serviceId":2978,"syncMask":"PORTAL_ONLY","files":[{"id":4744,"name":"C:\\Users\\student\\Desktop\\Ogdanets\\Project\\UC01_task_create\\File1.txt"}],"location":"Изумрудная 14","address":"Изумрудная 14","categories":["Технологическое оборудование","Холодильное оборудование","Холодильная пристенная горка"],"category1":"Технологическое оборудование","category2":"Холодильное оборудование","category3":"Холодильная пристенная горка","hasAttachments":true,"openCommunications":0,"totalCommunications":0,"actions":[]},{"id":149440,"applicant":{"fullName":"Алексей Карчевский","userName":"master","email":"a.karchevski@pflb.ru","location":"142784, г.Москва, Киевское шоссе, 22-й км,\nБП ComCity, домовл.6, стр.1","phone":"8 (000) 123-45-67","mobilePhone":"8 (000) 123-45-67","id":106},"header":"Течь из корпуса расходомеров, датчиков температуры и давления","text":"Some text 5","createDate":1574855104741,"lastEditDate":1574855104746,"ticketState":"Новый","ticketStateId":-1,"serviceId":2825,"syncMask":"PORTAL_ONLY","files":[{"id":4743,"name":"C:\\Users\\student\\Desktop\\Ogdanets\\Project\\UC01_task_create\\File1.txt"}],"location":"default location","address":"default location","categories":["Инженерия","Измерительные приборы","Счетчик тепла"],"category1":"Инженерия","category2":"Измерительные приборы","category3":"Счетчик тепла","hasAttachments":true,"openCommunications":0,"totalCommunications":0,"actions":[]},{"id":149439,"applicant":{"fullName":"Алексей Карчевский","userName":"master","email":"a.karchevski@pflb.ru","location":"142784, г.Москва, Киевское шоссе, 22-й км,\nБП ComCity, домовл.6, стр.1","phone":"8 (000) 123-45-67","mobilePhone":"8 (000) 123-45-67","id":106},"header":"Требуется изменить график замены или количество ковровых покрытий","text":"Some text 3","createDate":1574855048988,"lastEditDate":1574855048993,"ticketState":"Новый","ticketStateId":-1,"serviceId":2817,"syncMask":"PORTAL_ONLY","files":[{"id":4742,"name":"C:\\Users\\student\\Desktop\\Ogdanets\\Project\\UC01_task_create\\File1.txt"}],"location":"Изумрудная 14","address":"Изумрудная 14","categories":["Экология","Замена ковриков","Замена ковриков"],"category1":"Экология","category2":"Замена ковриков","category3":"Замена ковриков","hasAttachments":true,"openCommunications":0,"totalCommunications":0,"actions":[]},{"id":149438,"applicant":{"fullName":"Алексей Карчевский","userName":"master","email":"a.karchevski@pflb.ru","location":"142784, г.Москва, Киевское шоссе, 22-й км,\nБП ComCity, домовл.6, стр.1","phone":"8 (000) 123-45-67","mobilePhone":"8 (000) 123-45-67","id":106},"header":"Течь из корпуса расходомеров, датчиков температуры и давления","text":"Some text 1","createDate":1574854946163,"lastEditDate":1574854946168,"ticketState":"Новый","ticketStateId":-1,"serviceId":2825,"syncMask":"PORTAL_ONLY","files":[{"id":4741,"name":"C:\\Users\\student\\Desktop\\Ogdanets\\Project\\UC01_task_create\\File1.txt"}],"location":"Барклая 24","address":"Барклая 24","categories":["Инженерия","Измерительные приборы","Счетчик тепла"],"category1":"Инженерия","category2":"Измерительные приборы","category3":"Счетчик тепла","hasAttachments":true,"openCommunications":0,"totalCommunications":0,"actions":[]},{"id":149437,"applicant":{"fullName":"Алексей Карчевский","userName":"master","email":"a.karchevski@pflb.ru","location":"142784, г.Москва, Киевское шоссе, 22-й км,\nБП ComCity, домовл.6, стр.1","phone":"8 (000) 123-45-67","mobilePhone":"8 (000) 123-45-67","id":106},"header":"Вентиляция не работает ( в магазине душно)","text":"Some text 2","createDate":1574854566673,"lastEditDate":1574854566707,"ticketState":"Новый","ticketStateId":-1,"serviceId":2936,"syncMask":"PORTAL_ONLY","files":[{"id":4740,"name":"C:\\Users\\student\\Desktop\\Ogdanets\\Project\\UC01_task_create\\File1.txt"}],"location":"default location","address":"default location","categories":["Технологическое оборудование","Климатическое оборудование","Система вентиляции"],"category1":"Технологическое оборудование","category2":"Климатическое оборудование","category3":"Система вентиляции","hasAttachments":true,"openCommunications":0,"totalCommunications":0,"actions":[]},{"id":149436,"applicant":{"fullName":"Алексей Карчевский","userName":"master","email":"a.karchevski@pflb.ru","location":"142784, г.Москва, Киевское шоссе, 22-й км,\nБП ComCity, домовл.6, стр.1","phone":"8 (000) 123-45-67","mobilePhone":"8 (000) 123-45-67","id":106},"header":"Течет в местах соединения и подвода воды, нарушена прокладка","text":"Some text 4","createDate":1574854553540,"lastEditDate":1574854553545,"ticketState":"Новый","ticketStateId":-1,"serviceId":2848,"syncMask":"PORTAL_ONLY","files":[{"id":4739,"name":"C:\\Users\\student\\Desktop\\Ogdanets\\Project\\UC01_task_create\\File1.txt"}],"location":"default location","address":"default location","categories":["Инженерия","Сантехника","Кран, смеситель, душ"],"category1":"Инженерия","category2":"Сантехника","category3":"Кран, смеситель, душ","hasAttachments":true,"openCommunications":0,"totalCommunications":0,"actions":[]},{"id":149435,"applicant":{"fullName":"Алексей Карчевский","userName":"master","email":"a.karchevski@pflb.ru","location":"142784, г.Москва, Киевское шоссе, 22-й км,\nБП ComCity, домовл.6, стр.1","phone":"8 (000) 123-45-67","mobilePhone":"8 (000) 123-45-67","id":106},"header":"Не работает Холодильный Шкаф(указать какую температуру показывает)","text":"Some text 1","createDate":1574854540904,"lastEditDate":1574854540909,"ticketState":"Новый","ticketStateId":-1,"serviceId":2979,"syncMask":"PORTAL_ONLY","files":[{"id":4738,"name":"C:\\Users\\student\\Desktop\\Ogdanets\\Project\\UC01_task_create\\File1.txt"}],"location":"default location","address":"default location","categories":["Технологическое оборудование","Холодильное оборудование","Холодильный Шкаф на Складе"],"category1":"Технологическое оборудование","category2":"Холодильное оборудование","category3":"Холодильный Шкаф на Складе","hasAttachments":true,"openCommunications":0,"totalCommunications":0,"actions":[]}],"last":false,"totalElements":263,"totalPages":27,"size":10,"number":0,"sort":[{"direction":"DESC","property":"id","ignoreCase":false,"nullHandling":"NATIVE","ascending":false,"descending":true}],"numberOfElements":10,"first":true}